<?xml version="1.0" encoding="utf-8"?>
<!-- Generator: Adobe Illustrator 16.0.0, SVG Export Plug-In . SVG Version: 6.00 Build 0)  -->
<!DOCTYPE svg PUBLIC "-//W3C//DTD SVG 1.1//EN" "http://www.w3.org/Graphics/SVG/1.1/DTD/svg11.dtd">
<svg version="1.1" id="Warstwa_1" xmlns="http://www.w3.org/2000/svg" xmlns:xlink="http://www.w3.org/1999/xlink" x="0px" y="0px"
	 width="163.249px" height="30px" viewBox="0 0 163.249 30" enable-background="new 0 0 163.249 30" xml:space="preserve">
<g>
	<path fill="#8C8E91" d="M52.012,2.675l2.339,5.298h-4.674L52.012,2.675z M50.855,0.042l-5.671,12.863h2.319l1.29-2.926h6.438
		l1.288,2.926h2.319L53.172,0.042H50.855z"/>
	<path fill="#C0A259" d="M70.208,9.328h1.126c0.639,0,1.102,0.065,1.396,0.192c0.289,0.126,0.437,0.389,0.437,0.786
		c0,0.397-0.139,0.661-0.414,0.795c-0.272,0.136-0.683,0.203-1.231,0.203h-1.313V9.328z M70.208,5.968h0.921
		c0.565,0,0.964,0.062,1.202,0.185c0.236,0.123,0.354,0.373,0.354,0.753c0,0.382-0.129,0.628-0.386,0.742
		c-0.256,0.115-0.653,0.169-1.183,0.169h-0.908V5.968z M68.293,4.352v8.57h3.753c1.179,0,2.003-0.264,2.479-0.796
		c0.41-0.457,0.614-0.985,0.614-1.582c0-0.542-0.16-0.991-0.475-1.355c-0.313-0.362-0.736-0.602-1.267-0.718
		c0.146-0.063,0.247-0.111,0.305-0.141c0.057-0.028,0.159-0.098,0.308-0.215c0.433-0.328,0.651-0.826,0.651-1.494
		c0-0.558-0.192-1.058-0.576-1.497c-0.215-0.24-0.531-0.428-0.951-0.567c-0.424-0.135-0.923-0.205-1.504-0.205H68.293z"/>
	<polygon fill="#C0A259" points="85.992,4.352 85.992,12.922 92.311,12.922 92.311,11.23 87.908,11.23 87.908,9.453 91.747,9.453 
		91.747,7.818 87.908,7.818 87.908,6.054 92.178,6.054 92.178,4.352 	"/>
	<path fill="#C0A259" d="M106.784,6.902l1.066,2.489h-2.146L106.784,6.902z M105.853,4.352l-3.704,8.57h2.035l0.8-1.851h3.593
		l0.794,1.851h2.039l-3.702-8.57H105.853z"/>
	<path fill="#C0A259" d="M126.731,4.352v4.732c0,0.687-0.16,1.229-0.476,1.625c-0.311,0.397-0.737,0.595-1.28,0.595
		c-0.54,0-0.971-0.198-1.287-0.595c-0.317-0.397-0.478-0.939-0.478-1.625V4.352h-1.915v4.794c0,1.236,0.346,2.188,1.036,2.859
		c0.691,0.67,1.572,1.004,2.644,1.004c1.072,0,1.951-0.333,2.639-0.997c0.687-0.668,1.03-1.624,1.03-2.867V4.352H126.731z"/>
	<polygon fill="#C0A259" points="139.17,4.352 139.17,6.005 141.601,6.005 141.601,12.922 143.512,12.922 143.512,6.005 
		145.94,6.005 145.94,4.352 	"/>
	<polygon fill="#C0A259" points="161.178,4.352 159.326,7.539 157.472,4.352 155.396,4.352 158.369,9.54 158.369,12.922 
		160.278,12.922 160.278,9.54 163.249,4.352 	"/>
	<path fill="#C0A259" d="M2.168,7.384h3.129c1.827,0,2.74,0.571,2.74,1.711c0,0.698-0.211,1.173-0.635,1.427
		c-0.421,0.251-1.034,0.377-1.828,0.377H2.168V7.384z M2.168,2.047h2.78c0.797,0,1.386,0.135,1.768,0.405
		c0.379,0.269,0.569,0.712,0.569,1.325c0,1.067-0.786,1.602-2.354,1.602H2.168V2.047z M0,0.042v12.863h5.63
		c1.754,0,2.994-0.4,3.716-1.196c0.615-0.688,0.92-1.479,0.92-2.375c0-0.809-0.235-1.488-0.709-2.033
		C9.085,6.755,8.451,6.398,7.654,6.226c0.22-0.098,0.375-0.168,0.461-0.211C8.2,5.973,8.357,5.864,8.593,5.691
		C9.229,5.2,9.548,4.451,9.548,3.448c0-0.836-0.295-1.584-0.884-2.247C8.357,0.847,7.888,0.565,7.257,0.354
		C6.625,0.146,5.874,0.042,5.001,0.042H0z"/>
	<polygon fill="#C0A259" points="23.965,0.042 23.965,12.905 33.218,12.905 33.218,10.862 26.134,10.862 26.134,7.421 32.3,7.421 
		32.3,5.488 26.134,5.488 26.134,2.086 32.998,2.086 32.998,0.042 	"/>
	<rect y="25.71" fill="#C0A259" width="58.839" height="1.437"/>
	<path fill="#8C8E91" d="M73.408,27.991L73.408,27.991L73.408,27.991c0,1.102-1.226,1.967-2.604,1.967
		c-1.442,0-2.609-0.948-2.609-2.437v-2.237c0-1.489,1.167-2.439,2.609-2.439c1.377,0,2.604,0.841,2.604,1.971l0,0l0,0
		c0.004,0.326-0.269,0.59-0.598,0.59c-0.332,0-0.603-0.264-0.603-0.59l0,0c0-0.009,0.005-0.396,0.003-0.449
		c-0.047-0.65-0.657-1.166-1.406-1.166c-0.934,0-1.405,0.62-1.405,1.692v3.023c0,1.03,0.504,1.689,1.405,1.689
		c0.749,0,1.359-0.518,1.406-1.167c0.002-0.05-0.003-0.439-0.003-0.447l0,0c0-0.327,0.271-0.592,0.603-0.592
		C73.14,27.399,73.413,27.664,73.408,27.991z"/>
	<path fill="#8C8E91" d="M90.656,29.613l-0.009,0.104c-0.006,0.064-0.061,0.117-0.127,0.115c-1.388-0.053-2.493-0.976-2.493-2.108
		l-0.006-7.853c0-0.059,0.032-0.12,0.091-0.137c0.321-0.065,0.624-0.19,0.903-0.382c0.084-0.055,0.21,0.028,0.21,0.137l0.008,8.731
		c0,0.655,0.574,1.214,1.31,1.259C90.613,29.482,90.662,29.546,90.656,29.613z"/>
	<path fill="#8C8E91" d="M106.335,23.049v6.62c0,0.089-0.07,0.163-0.161,0.163h-0.867c-0.089,0-0.159-0.073-0.159-0.163
		l-0.015-6.236c0-0.06,0.03-0.123,0.092-0.138c0.321-0.066,0.622-0.189,0.904-0.385C106.214,22.859,106.335,22.943,106.335,23.049z"
		/>
	<path fill="#8C8E91" d="M126.773,25.005l0.004,4.685c0,0.079-0.074,0.143-0.163,0.143h-0.886c-0.087,0-0.157-0.063-0.157-0.143
		v-5.181c0-0.685-0.627-1.262-1.406-1.262h-0.217c-0.792-0.014-1.435,0.568-1.435,1.262l0.005,5.181
		c0,0.079-0.073,0.143-0.162,0.143h-0.883c-0.091,0-0.162-0.063-0.162-0.143l-0.004-4.685c0-1.164,1.172-2.109,2.615-2.109h0.24
		C125.607,22.896,126.773,23.841,126.773,25.005z"/>
	<path fill="#8C8E91" d="M143.028,23.049v6.62c0,0.089-0.07,0.163-0.159,0.163h-0.867c-0.091,0-0.161-0.073-0.165-0.163
		l-0.011-6.236c0-0.06,0.033-0.123,0.089-0.138c0.324-0.066,0.627-0.189,0.905-0.385C142.905,22.859,143.028,22.943,143.028,23.049z
		"/>
	<path fill="#8C8E91" d="M163.229,27.991L163.229,27.991c0,1.102-1.229,1.967-2.603,1.967c-1.442,0-2.612-0.948-2.612-2.437v-2.237
		c0-1.489,1.17-2.439,2.612-2.439c1.374,0,2.603,0.841,2.603,1.971l0,0c0.006,0.326-0.271,0.59-0.603,0.59
		c-0.331,0-0.598-0.264-0.6-0.59l0,0l0,0l0,0l0,0c0-0.009,0.008-0.396,0.002-0.449c-0.045-0.65-0.655-1.166-1.402-1.166
		c-0.936,0-1.408,0.62-1.408,1.692v3.023c0,1.03,0.505,1.689,1.408,1.689c0.747,0,1.357-0.518,1.402-1.167
		c0.006-0.05-0.002-0.439-0.002-0.447l0,0l0,0l0,0l0,0c0.002-0.327,0.269-0.592,0.6-0.592
		C162.958,27.399,163.234,27.664,163.229,27.991z"/>
</g>
</svg>
